…
    ## Rows: 822 Columns: 9
    ## ── Column specification ────────────────────────────────────────────────────────
    ## Delimiter: ","
    ## dbl  (8): prez_gop, gov_gop, sen_gop, rep_gop, prez_dem, gov_dem, sen_dem, r...
    ## date (1): mon
    ## 
    ## ℹ Use `spec()` to retrieve the full column specification for this data.
    ## ℹ Specify the column types or set `show_col_types = FALSE` to quiet this message.

``` r
pols_month
```

    ## # A tibble: 822 × 9
    ##    year  month     gov_gop sen_gop rep_gop gov_dem sen_dem rep_dem president
    ##    <chr> <chr>       <dbl>   <dbl>   <dbl>   <dbl>   <dbl>   <dbl> <chr>    
    ##  1 1947  January        23      51     253      23      45     198 dem      
    ##  2 1947  February       23      51     253      23      45     198 dem      
    ##  3 1947  March          23      51     253      23      45     198 dem      
    ##  4 1947  April          23      51     253      23      45     198 dem      
    ##  5 1947  May            23      51     253      23      45     198 dem      
    ##  6 1947  June           23      51     253      23      45     198 dem      
    ##  7 1947  July           23      51     253      23      45     198 dem      
    ##  8 1947  August         23      51     253      23      45     198 dem      
    ##  9 1947  September      23      51     253      23      45     198 dem      
    ## 10 1947  October        23      51     253      23      45     198 dem      
    ## # ℹ 812 more rows
…
    ## Rows: 787 Columns: 2
    ## ── Column specification ────────────────────────────────────────────────────────
    ## Delimiter: ","
    ## chr (1): date
    ## dbl (1): close
    ## 
    ## ℹ Use `spec()` to retrieve the full column specification for this data.
    ## ℹ Specify the column types or set `show_col_types = FALSE` to quiet this message.

``` r
snp
```

    ## # A tibble: 787 × 3
    ##    year  month    close
    ##    <chr> <chr>    <dbl>
    ##  1 7     January  2080.
    ##  2 6     January  2063.
    ##  3 5     January  2107.
    ##  4 4     January  2086.
    ##  5 3     February 2068.
    ##  6 2     February 2104.
    ##  7 1     February 1995.
    ##  8 12    January  2059.
    ##  9 11    March    2068.
    ## 10 10    January  2018.
    ## # ℹ 777 more rows
…
``` r
mr_trash_wheel =
  read_excel("./202309 Trash Wheel Collection Data.xlsx", 
             sheet = "Mr. Trash Wheel",
             range = "A2:N586") |> 
  janitor::clean_names() |> 
  mutate(
    homes_powered = (weight_tons * 500)/30,
    mr_trash_wheel = "Mr. Trash Wheel",
    year = as.numeric(year)
    )
mr_trash_wheel
```

    ## # A tibble: 584 × 15
    ##    dumpster month  year date                weight_tons volume_cubic_yards
    ##       <dbl> <chr> <dbl> <dttm>                    <dbl>              <dbl>
    ##  1        1 May    2014 2014-05-16 00:00:00        4.31                 18
    ##  2        2 May    2014 2014-05-16 00:00:00        2.74                 13
    ##  3        3 May    2014 2014-05-16 00:00:00        3.45                 15
    ##  4        4 May    2014 2014-05-17 00:00:00        3.1                  15
    ##  5        5 May    2014 2014-05-17 00:00:00        4.06                 18
    ##  6        6 May    2014 2014-05-20 00:00:00        2.71                 13
    ##  7        7 May    2014 2014-05-21 00:00:00        1.91                  8
    ##  8        8 May    2014 2014-05-28 00:00:00        3.7                  16
    ##  9        9 June   2014 2014-06-05 00:00:00        2.52                 14
    ## 10       10 June   2014 2014-06-11 00:00:00        3.76                 18
    ## # ℹ 574 more rows
    ## # ℹ 9 more variables: plastic_bottles <dbl>, polystyrene <dbl>,
    ## #   cigarette_butts <dbl>, glass_bottles <dbl>, plastic_bags <dbl>,
    ## #   wrappers <dbl>, sports_balls <dbl>, homes_powered <dbl>,
    ## #   mr_trash_wheel <chr>
#### There are 584 observations and 15 variables in the dataset.

``` r
professor_trash_wheel =
  read_excel("./202309 Trash Wheel Collection Data.xlsx", 
             sheet = "Professor Trash Wheel",
             range = "A2:M108") |> 
  janitor::clean_names() |> 
  mutate(homes_powered = (weight_tons * 500)/30,
          mr_trash_wheel = "Professor Trash Wheel"
        )
professor_trash_wheel
```

    ## # A tibble: 106 × 14
    ##    dumpster month     year date                weight_tons volume_cubic_yards
    ##       <dbl> <chr>    <dbl> <dttm>                    <dbl>              <dbl>
    ##  1        1 January   2017 2017-01-02 00:00:00        1.79                 15
    ##  2        2 January   2017 2017-01-30 00:00:00        1.58                 15
    ##  3        3 February  2017 2017-02-26 00:00:00        2.32                 18
    ##  4        4 February  2017 2017-02-26 00:00:00        3.72                 15
    ##  5        5 February  2017 2017-02-28 00:00:00        1.45                 15
    ##  6        6 March     2017 2017-03-30 00:00:00        1.71                 15
    ##  7        7 April     2017 2017-04-01 00:00:00        1.82                 15
    ##  8        8 April     2017 2017-04-20 00:00:00        2.37                 15
    ##  9        9 May       2017 2017-05-10 00:00:00        2.64                 15
    ## 10       10 May       2017 2017-05-26 00:00:00        2.78                 15
    ## # ℹ 96 more rows
    ## # ℹ 8 more variables: plastic_bottles <dbl>, polystyrene <dbl>,
    ## #   cigarette_butts <dbl>, glass_bottles <dbl>, plastic_bags <dbl>,
    ## #   wrappers <dbl>, homes_powered <dbl>, mr_trash_wheel <chr>

#### There are 106 observations and 14 variables in the dataset.

``` r
gwynnda = read_excel("./202309 Trash Wheel Collection Data.xlsx", 
             sheet = "Gwynnda Trash Wheel",
             range = "A2:L157") |> 
  janitor::clean_names() |> 
  mutate(homes_powered = (weight_tons * 500)/30,
          mr_trash_wheel = "Gwynnda Trash Wheel"
        )
gwynnda
```

    ## # A tibble: 155 × 13
    ##    dumpster month   year date                weight_tons volume_cubic_yards
    ##       <dbl> <chr>  <dbl> <dttm>                    <dbl>              <dbl>
    ##  1        1 July    2021 2021-07-03 00:00:00        0.93                 15
    ##  2        2 July    2021 2021-07-07 00:00:00        2.26                 15
    ##  3        3 July    2021 2021-07-07 00:00:00        1.62                 15
    ##  4        4 July    2021 2021-07-16 00:00:00        1.76                 15
    ##  5        5 July    2021 2021-07-30 00:00:00        1.53                 15
    ##  6        6 August  2021 2021-08-11 00:00:00        2.06                 15
    ##  7        7 August  2021 2021-08-14 00:00:00        1.9                  15
    ##  8        8 August  2021 2021-08-16 00:00:00        2.16                 15
    ##  9        9 August  2021 2021-08-16 00:00:00        2.6                  15
    ## 10       10 August  2021 2021-08-17 00:00:00        3.21                 15
    ## # ℹ 145 more rows
    ## # ℹ 7 more variables: plastic_bottles <dbl>, polystyrene <dbl>,
    ## #   cigarette_butts <dbl>, plastic_bags <dbl>, wrappers <dbl>,
    ## #   homes_powered <dbl>, mr_trash_wheel <chr>

#### There are 155 observations and 13 variables in the dataset.

### Combine the data

``` r
combine_data = bind_rows(mr_trash_wheel, professor_trash_wheel, gwynnda)
combine_data
```

    ## # A tibble: 845 × 15
    ##    dumpster month  year date                weight_tons volume_cubic_yards
    ##       <dbl> <chr> <dbl> <dttm>                    <dbl>              <dbl>
    ##  1        1 May    2014 2014-05-16 00:00:00        4.31                 18
    ##  2        2 May    2014 2014-05-16 00:00:00        2.74                 13
    ##  3        3 May    2014 2014-05-16 00:00:00        3.45                 15
    ##  4        4 May    2014 2014-05-17 00:00:00        3.1                  15
    ##  5        5 May    2014 2014-05-17 00:00:00        4.06                 18
    ##  6        6 May    2014 2014-05-20 00:00:00        2.71                 13
    ##  7        7 May    2014 2014-05-21 00:00:00        1.91                  8
    ##  8        8 May    2014 2014-05-28 00:00:00        3.7                  16
    ##  9        9 June   2014 2014-06-05 00:00:00        2.52                 14
    ## 10       10 June   2014 2014-06-11 00:00:00        3.76                 18
    ## # ℹ 835 more rows
    ## # ℹ 9 more variables: plastic_bottles <dbl>, polystyrene <dbl>,
    ## #   cigarette_butts <dbl>, glass_bottles <dbl>, plastic_bags <dbl>,
    ## #   wrappers <dbl>, sports_balls <dbl>, homes_powered <dbl>,
    ## #   mr_trash_wheel <chr>
…
